%YAML 1.1
%TAG !u! tag:unity3d.com,2011:
--- !u!114 &11400000
MonoBehaviour:
  m_ObjectHideFlags: 0
  m_CorrespondingSourceObject: {fileID: 0}
  m_PrefabInstance: {fileID: 0}
  m_PrefabAsset: {fileID: 0}
  m_GameObject: {fileID: 0}
  m_Enabled: 1
  m_EditorHideFlags: 0
  m_Script: {fileID: 11500000, guid: e7ed654a0ab40bd459cf9a45881ffa34, type: 3}
  m_Name: EnemyAttack3
  m_EditorClassIdentifier: 
  damageAmount: 10
  animationTrigger: Attack_3
  slideTargetPosition: 1
